id,cadete_id,accion,fecha,created_at,updated_at
125772,119,Ingreso,"2023-01-01 17:58:51","2023-01-01 17:58:51","2023-01-01 17:58:51"
125773,119,"Pedido confirmado - Id: 118370","2023-01-01 18:05:00","2023-01-01 18:05:00","2023-01-01 18:05:00"
125774,119,"Pedido confirmado - Id: 118373","2023-01-01 18:05:01","2023-01-01 18:05:01","2023-01-01 18:05:01"
125775,119,"Pedido confirmado - Id: 118374","2023-01-01 18:05:02","2023-01-01 18:05:02","2023-01-01 18:05:02"
125776,119,"Pedido confirmado - Id: 118375","2023-01-01 18:05:06","2023-01-01 18:05:06","2023-01-01 18:05:06"
125777,119,"Pedido confirmado - Id: 118376","2023-01-01 18:05:09","2023-01-01 18:05:09","2023-01-01 18:05:09"
125778,294,Ingreso,"2023-01-01 18:22:34","2023-01-01 18:22:34","2023-01-01 18:22:34"
125779,294,"Pedido confirmado - Id: 118371","2023-01-01 18:22:55","2023-01-01 18:22:55","2023-01-01 18:22:55"
125780,294,"Pedido confirmado - Id: 118378","2023-01-01 18:25:51","2023-01-01 18:25:51","2023-01-01 18:25:51"
125781,294,"Pedido confirmado - Id: 118382","2023-01-01 18:25:51","2023-01-01 18:25:51","2023-01-01 18:25:51"
125782,294,"Pedido confirmado - Id: 118387","2023-01-01 18:38:13","2023-01-01 18:38:13","2023-01-01 18:38:13"
125783,272,Ingreso,"2023-01-01 18:50:32","2023-01-01 18:50:32","2023-01-01 18:50:32"
125784,272,"Pedido confirmado - Id: 118381","2023-01-01 18:51:36","2023-01-01 18:51:36","2023-01-01 18:51:36"
125785,272,"Pedido confirmado - Id: 118390","2023-01-01 18:51:38","2023-01-01 18:51:38","2023-01-01 18:51:38"
125786,119,"Pedido confirmado - Id: 118384","2023-01-01 18:54:33","2023-01-01 18:54:33","2023-01-01 18:54:33"
125787,119,"Pedido confirmado - Id: 118388","2023-01-01 18:54:34","2023-01-01 18:54:34","2023-01-01 18:54:34"
125788,119,"Pedido confirmado - Id: 118389","2023-01-01 18:54:36","2023-01-01 18:54:36","2023-01-01 18:54:36"
125789,294,"Pedido rechazado - Id: 118386","2023-01-01 19:03:03","2023-01-01 19:03:03","2023-01-01 19:03:03"
125790,294,"Pedido confirmado - Id: 118391","2023-01-01 19:03:05","2023-01-01 19:03:05","2023-01-01 19:03:05"
125791,294,"Pedido rechazado - Id: 118386","2023-01-01 19:04:50","2023-01-01 19:04:50","2023-01-01 19:04:50"
125792,316,Ingreso,"2023-01-01 19:06:42","2023-01-01 19:06:42","2023-01-01 19:06:42"
125793,316,Salida,"2023-01-01 19:06:49","2023-01-01 19:06:49","2023-01-01 19:06:49"
125794,294,"Pedido confirmado - Id: 118393","2023-01-01 19:12:32","2023-01-01 19:12:32","2023-01-01 19:12:32"
125795,294,"Pedido rechazado - Id: 118386","2023-01-01 19:12:32","2023-01-01 19:12:32","2023-01-01 19:12:32"
125796,272,Salida,"2023-01-01 19:17:20","2023-01-01 19:17:20","2023-01-01 19:17:20"
125797,294,"Pedido confirmado - Id: 118394","2023-01-01 19:17:29","2023-01-01 19:17:29","2023-01-01 19:17:29"
125798,119,"Pedido rechazado - Id: 118386","2023-01-01 19:22:02","2023-01-01 19:22:02","2023-01-01 19:22:02"
125799,119,"Pedido rechazado - Id: 118386","2023-01-01 19:22:43","2023-01-01 19:22:43","2023-01-01 19:22:43"
125800,119,"Pedido confirmado - Id: 118395","2023-01-01 19:22:58","2023-01-01 19:22:58","2023-01-01 19:22:58"
125801,119,"Pedido confirmado - Id: 118386","2023-01-01 19:27:35","2023-01-01 19:27:35","2023-01-01 19:27:35"
125802,119,"Pedido confirmado - Id: 118396","2023-01-01 19:37:36","2023-01-01 19:37:36","2023-01-01 19:37:36"
125803,119,"Pedido confirmado - Id: 118379","2023-01-01 19:37:44","2023-01-01 19:37:44","2023-01-01 19:37:44"
125804,294,"Pedido confirmado - Id: 118397","2023-01-01 19:38:35","2023-01-01 19:38:35","2023-01-01 19:38:35"
125805,294,"Pedido confirmado - Id: 118399","2023-01-01 19:40:43","2023-01-01 19:40:43","2023-01-01 19:40:43"
125806,294,"Pedido confirmado - Id: 118402","2023-01-01 19:52:58","2023-01-01 19:52:58","2023-01-01 19:52:58"
125807,295,Ingreso,"2023-01-01 19:59:02","2023-01-01 19:59:02","2023-01-01 19:59:02"
125808,295,"Pedido confirmado - Id: 118405","2023-01-01 20:03:49","2023-01-01 20:03:49","2023-01-01 20:03:49"
125809,295,"Pedido confirmado - Id: 118408","2023-01-01 20:03:50","2023-01-01 20:03:50","2023-01-01 20:03:50"
125810,258,Ingreso,"2023-01-01 20:10:51","2023-01-01 20:10:51","2023-01-01 20:10:51"
125811,119,Salida,"2023-01-01 20:12:24","2023-01-01 20:12:24","2023-01-01 20:12:24"
125812,258,"Pedido confirmado - Id: 118416","2023-01-01 20:12:57","2023-01-01 20:12:57","2023-01-01 20:12:57"
125813,294,"Pedido confirmado - Id: 118409","2023-01-01 20:16:00","2023-01-01 20:16:00","2023-01-01 20:16:00"
125814,258,"Pedido confirmado - Id: 118400","2023-01-01 20:16:25","2023-01-01 20:16:25","2023-01-01 20:16:25"
125815,294,"Pedido confirmado - Id: 118410","2023-01-01 20:17:15","2023-01-01 20:17:15","2023-01-01 20:17:15"
125816,335,Ingreso,"2023-01-01 20:19:25","2023-01-01 20:19:25","2023-01-01 20:19:25"
125817,266,Ingreso,"2023-01-01 20:19:26","2023-01-01 20:19:26","2023-01-01 20:19:26"
125818,294,"Pedido confirmado - Id: 118415","2023-01-01 20:20:39","2023-01-01 20:20:39","2023-01-01 20:20:39"
125819,266,"Pedido confirmado - Id: 118417","2023-01-01 20:25:46","2023-01-01 20:25:46","2023-01-01 20:25:46"
125820,295,"Pedido confirmado - Id: 118424","2023-01-01 20:27:42","2023-01-01 20:27:42","2023-01-01 20:27:42"
125821,266,"Pedido confirmado - Id: 118421","2023-01-01 20:29:47","2023-01-01 20:29:47","2023-01-01 20:29:47"
